<svg width="24" height="24" viewBox="0 0 24 24" fill="none" xmlns="http://www.w3.org/2000/svg">
<path fill-rule="evenodd" clip-rule="evenodd" d="M11.874 11H12.126C12.57 9.275 14.136 8 16 8H18C19.0609 8 20.0783 8.42143 20.8284 9.17157C21.5786 9.92172 22 10.9391 22 12C22 13.0609 21.5786 14.0783 20.8284 14.8284C20.0783 15.5786 19.0609 16 18 16H16C15.1131 15.9999 14.2514 15.7052 13.5502 15.1622C12.849 14.6192 12.3481 13.8586 12.126 13H11.874C11.6519 13.8586 11.151 14.6192 10.4498 15.1622C9.74858 15.7052 8.88687 15.9999 8 16H6C4.93913 16 3.92172 15.5786 3.17157 14.8284C2.42143 14.0783 2 13.0609 2 12C2 10.9391 2.42143 9.92172 3.17157 9.17157C3.92172 8.42143 4.93913 8 6 8H8C8.88687 8.00012 9.74858 8.29482 10.4498 8.83783C11.151 9.38084 11.6519 10.1414 11.874 11V11ZM9.75 11.031C9.57694 10.7185 9.32337 10.4581 9.01562 10.2768C8.70787 10.0955 8.35718 9.99993 8 10H6C5.46957 10 4.96086 10.2107 4.58579 10.5858C4.21071 10.9609 4 11.4696 4 12C4 12.5304 4.21071 13.0391 4.58579 13.4142C4.96086 13.7893 5.46957 14 6 14H8C8.35718 14.0001 8.70787 13.9045 9.01562 13.7232C9.32337 13.5419 9.57694 13.2815 9.75 12.969C9.53467 12.9141 9.34377 12.789 9.20742 12.6136C9.07108 12.4381 8.99706 12.2222 8.99706 12C8.99706 11.7778 9.07108 11.5619 9.20742 11.3864C9.34377 11.211 9.53467 11.0859 9.75 11.031V11.031ZM14 12.97C14.1732 13.2823 14.4268 13.5425 14.7346 13.7236C15.0423 13.9047 15.3929 14.0002 15.75 14H17.75C18.2804 14 18.7891 13.7893 19.1642 13.4142C19.5393 13.0391 19.75 12.5304 19.75 12C19.75 11.4696 19.5393 10.9609 19.1642 10.5858C18.7891 10.2107 18.2804 10 17.75 10H15.75C15.3928 9.99993 15.0421 10.0955 14.7344 10.2768C14.4266 10.4581 14.1731 10.7185 14 11.031C14.2153 11.0859 14.4062 11.211 14.5426 11.3864C14.6789 11.5619 14.7529 11.7778 14.7529 12C14.7529 12.2222 14.6789 12.4381 14.5426 12.6136C14.4062 12.789 14.2153 12.9141 14 12.969V12.97Z" fill="white" fill-opacity="0.3"/>
</svg>
